<?xml version="1.0" encoding="utf-8"?>
<!-- Generator: Adobe Illustrator 22.1.0, SVG Export Plug-In . SVG Version: 6.00 Build 0)  -->
<svg version="1.1" id="Слой_1" xmlns="http://www.w3.org/2000/svg" xmlns:xlink="http://www.w3.org/1999/xlink" x="0px" y="0px"
	 viewBox="0 0 5 7" style="enable-background:new 0 0 5 7;" xml:space="preserve">
<style type="text/css">
	.st0{fill:#FFFFFF;}
</style>
<path id="Shape_15_copy_2" class="st0" d="M0,0.4v6.2C0,6.9,0.2,7.1,0.5,7c0.2-0.1,4-2.9,4.4-3.1C5,3.7,5,3.4,4.9,3.2
	c0,0,0,0-0.1-0.1C4.6,3,0.7,0.3,0.5,0.1C0.3,0,0.1,0,0,0.2C0,0.2,0,0.3,0,0.4z"/>
</svg>
