<?xml version="1.0" encoding="UTF-8" standalone="no"?>
<svg
   xmlns:dc="http://purl.org/dc/elements/1.1/"
   xmlns:cc="http://creativecommons.org/ns#"
   xmlns:rdf="http://www.w3.org/1999/02/22-rdf-syntax-ns#"
   xmlns:svg="http://www.w3.org/2000/svg"
   xmlns="http://www.w3.org/2000/svg"
   xmlns:sodipodi="http://sodipodi.sourceforge.net/DTD/sodipodi-0.dtd"
   xmlns:inkscape="http://www.inkscape.org/namespaces/inkscape"
   version="1.1"
   x="0px"
   y="0px"
   viewBox="0 0 230 36"
   enable-background="new 0 0 140 20"
   xml:space="preserve"
   id="svg2"
   inkscape:version="0.92.4 (5da689c313, 2019-01-14)"
   sodipodi:docname="logo-yellow.svg"
   width="230"
   height="36"><metadata
   id="metadata14"><rdf:RDF><cc:Work
       rdf:about=""><dc:format>image/svg+xml</dc:format><dc:type
         rdf:resource="http://purl.org/dc/dcmitype/StillImage" /><dc:title></dc:title></cc:Work></rdf:RDF></metadata><defs
   id="defs12">
        

        
    </defs><sodipodi:namedview
   pagecolor="#ffffff"
   bordercolor="#666666"
   borderopacity="1"
   objecttolerance="10"
   gridtolerance="10"
   guidetolerance="10"
   inkscape:pageopacity="0"
   inkscape:pageshadow="2"
   inkscape:window-width="1920"
   inkscape:window-height="1027"
   id="namedview10"
   showgrid="false"
   fit-margin-top="0"
   fit-margin-left="0"
   fit-margin-right="0"
   fit-margin-bottom="0"
   inkscape:zoom="3.788072"
   inkscape:cx="70.939423"
   inkscape:cy="13.795409"
   inkscape:window-x="-8"
   inkscape:window-y="-8"
   inkscape:window-maximized="1"
   inkscape:current-layer="svg2" />

         
           <g
   id="g4152"
   transform="scale(1.1272601,1.125)"><path
     d="m 0,15.923316 c 1.364133,-0.209523 2.7700396,-0.365102 4.139717,-0.365102 1.3596974,0 2.7585349,0.135828 4.1057227,0.313016 0.6615521,0.08673 1.3238493,0.187041 1.9830623,0.301743 -2.0181307,1.341785 -4.2164202,2.82794 -5.7094434,4.561313 C 2.8753488,22.349034 1.3313864,24.480523 0,26.550284 Z M 11.298643,11.65538 C 10.396412,11.471214 9.4895015,11.306541 8.5811885,11.16616 7.1292284,10.941681 5.6100947,10.760745 4.139717,10.760745 2.7691733,10.760745 1.3666626,10.911916 0,11.122343 V 1.3315285 C 1.4793181,2.234288 2.9383471,3.1880516 4.337046,4.2023481 5.4669449,5.0219317 6.6055244,5.909445 7.6014045,6.8842046 8.9268132,8.2098059 10.198025,9.9786145 11.298643,11.65538 Z M 15.797483,0 c 0.139474,1.0632007 0.238165,2.1478657 0.238165,3.2135698 0,1.9570937 -0.25778,4.1181546 -0.645647,6.1281256 C 14.098379,7.2811241 12.62244,5.0604511 10.855818,3.5886861 9.5817119,2.2927376 8.0172354,1.083486 6.4487735,0 Z m 4.110573,10.452185 C 20.086984,9.5276869 20.256937,8.601654 20.404038,7.6711636 20.633887,6.2176005 20.833314,4.6862715 20.833314,3.2135698 20.833314,2.1473489 20.737678,1.0643959 20.598387,0 h 9.088797 C 28.957088,1.1599919 28.19508,2.3032193 27.391694,3.4108184 26.572091,4.5405762 25.684811,5.6795397 24.709672,6.6751659 23.834452,7.5503886 22.827534,8.351835 21.835103,9.0903744 21.205257,9.5590031 20.561707,10.013193 19.908056,10.452185 Z M 32,14.816541 c -1.194526,0.169599 -2.421537,0.293071 -3.619531,0.293071 -1.963362,0 -4.132525,-0.259542 -6.157276,-0.616327 2.05164,-1.36144 4.222,-2.811046 5.842649,-4.5531737 C 29.49947,8.5046368 30.824013,6.7133463 32,4.9321337 Z m 0,14.202783 c -1.326465,-0.820828 -2.634115,-1.68132 -3.896924,-2.591591 -1.125254,-0.811685 -2.256436,-1.686925 -3.259074,-2.647634 -0.890745,-0.891615 -1.699675,-1.934933 -2.443665,-2.950733 -0.437245,-0.59714 -0.861393,-1.203937 -1.27861,-1.815258 0.911761,0.182521 1.827819,0.347273 2.746025,0.487446 1.477361,0.225948 3.01687,0.405802 4.512717,0.405802 1.198911,0 2.422786,-0.120002 3.619531,-0.289712 z M 17.089798,21.355685 c 1.311217,2.040627 2.858783,4.244874 4.570708,5.719337 0.990213,1.007917 2.124636,1.919656 3.261465,2.755955 1.033235,0.760228 2.104674,1.481536 3.195572,2.169023 H 16.917522 c -0.243902,-1.491599 -0.433245,-3.048332 -0.433245,-4.545663 0,-1.958547 0.253277,-4.090391 0.605521,-6.098652 z M 2.0418853,32 c 0.9544529,-1.636535 1.9765477,-3.2523 3.0724698,-4.786939 0.7976154,-1.116593 1.6660087,-2.241442 2.624776,-3.220418 0.8530596,-0.853193 1.8440016,-1.63177 2.8126269,-2.349798 0.650602,-0.482469 1.314113,-0.948902 1.984675,-1.404496 -0.177353,0.916794 -0.345608,1.835252 -0.491651,2.757812 -0.229851,1.453725 -0.429293,2.985119 -0.429293,4.458176 0,1.497686 0.190069,3.050801 0.443691,4.545663 z"
     id="path6"
     inkscape:connector-curvature="0"
     style="fill:#ffb914;fill-opacity:1" /><path
     d="m 204.03454,23.377976 -6.70838,-7.25629 5.98486,-5.440641 h -4.87141 l -5.40023,5.440641 h -0.0557 V 5.585326 h -4.67632 v 17.79265 h 4.67643 v -6.838569 h 0.0554 l 5.62316,6.838569 z m -19.20672,0 v -8.906198 c 0,-2.595507 -2.69982,-4.098647 -7.59925,-4.098647 -2.83922,0 -5.39989,0.689088 -7.07012,1.195279 v 11.809566 h 4.70421 V 13.020059 c 0.52875,-0.153956 1.33633,-0.263939 2.19906,-0.263939 1.7258,0 3.06207,0.528446 3.06207,1.759737 v 8.862119 z m -22.49126,-2.373211 c -0.47323,0.175971 -1.19675,0.307931 -2.11561,0.307931 -2.11543,0 -3.42357,-0.615981 -3.42357,-2.045547 0,-2.023759 2.25457,-2.043268 5.53918,-2.285226 z m 4.42606,1.275938 V 15.04373 c 0,-3.189474 -2.86725,-4.670599 -6.81991,-4.670599 -2.97847,0 -5.2887,0.821188 -6.51361,1.195279 l 1.00212,1.891487 c 1.14141,-0.373832 2.97834,-0.703777 4.62073,-0.703777 1.97638,0 3.28461,0.396089 3.28461,1.715658 v 0.804202 c -5.37232,0.351801 -9.99293,0.977562 -9.99293,4.123146 0,2.419534 2.56092,4.290426 7.59908,4.290426 2.9785,0 5.37237,-0.880922 6.81991,-1.408849 z M 144.9671,18.58523 c 0,1.803588 -1.55891,2.485663 -4.00842,2.485663 -0.97435,0 -1.75356,-0.110068 -2.25464,-0.26406 v -4.866128 c 0.33392,-0.02177 0.86281,-0.04423 1.30816,-0.04423 3.61853,0 4.9549,0.862899 4.9549,2.688657 z m -0.47329,-6.862951 c 0,1.649668 -1.11343,2.231489 -4.45361,2.231489 -0.44546,0 -1.03013,0 -1.33616,-0.02177 V 9.6109183 c 0.58462,-0.1539575 1.28029,-0.2420808 2.1432,-0.2420808 2.47742,0 3.64657,0.7917265 3.64657,2.3536505 z m 5.40016,6.972933 c 0,-2.111813 -2.58868,-3.453669 -4.64868,-3.805419 v -0.04423 c 1.83716,-0.285968 3.98053,-1.341806 3.98053,-3.343568 0,-2.2656312 -2.64452,-4.09132 -8.46214,-4.09132 -2.92276,0 -5.31639,0.3738327 -6.79181,0.8798501 V 22.806027 c 1.55883,0.527653 4.00846,0.883272 7.04258,0.883272 5.5112,0 8.87952,-1.980872 8.87952,-4.994358 z m -18.2046,-8.014167 h -4.42591 l -2.89495,7.420233 c -0.38623,0.990541 -0.52894,1.913829 -0.52894,1.913829 h -0.0554 c 0,0 -0.0953,-0.920144 -0.44556,-1.913829 l -2.61657,-7.420233 h -5.03829 l 5.78987,12.171458 -2.83928,4.732823 h 5.03831 z m -22.82545,10.103758 c -0.38961,0.15413 -1.08553,0.264076 -1.86477,0.264076 -2.72819,0 -3.89722,-1.473801 -3.89722,-4.179546 0,-2.463562 1.22504,-4.034902 4.11986,-4.034902 0.61221,0 1.169,0.04372 1.64213,0.132183 z m 4.67638,1.4959 V 5.585326 h -4.67638 v 5.389065 c -0.61214,-0.110068 -1.61452,-0.535408 -2.75563,-0.535408 -4.59302,0 -7.794042,2.757047 -7.794042,6.584305 0,4.047605 3.173532,6.666264 8.573362,6.666264 2.9784,0 5.06595,-0.85889 6.65269,-1.408849 z m -18.065616,1.097273 v -8.906198 c 0,-2.595507 -2.699787,-4.098647 -7.599002,-4.098647 -2.839277,0 -5.400109,0.689088 -7.070187,1.195279 V 23.377976 H 85.50971 V 13.020059 c 0.528797,-0.153956 1.336508,-0.263939 2.198873,-0.263939 1.725657,0 3.062093,0.528446 3.062093,1.759737 v 8.862119 z M 72.983732,21.004765 c -0.473306,0.175971 -1.196859,0.307931 -2.115708,0.307931 -2.11555,0 -3.423929,-0.615981 -3.423929,-2.045547 0,-2.023759 2.254938,-2.043268 5.539637,-2.285226 z m 4.425805,1.275938 V 15.04373 c 0,-3.189474 -2.866971,-4.670599 -6.819818,-4.670599 -2.978369,0 -5.289024,0.821188 -6.513646,1.195279 l 1.002138,1.891487 c 1.141245,-0.373832 2.978403,-0.703777 4.620822,-0.703777 1.976164,0 3.284699,0.395778 3.284699,1.715658 v 0.593794 c -5.372382,0.352165 -9.99324,1.18797 -9.99324,4.333554 0,2.419534 2.560989,4.290426 7.599227,4.290426 2.978318,0 5.372399,-0.880922 6.819818,-1.408849 z M 60.123799,23.377976 V 7.7189449 h -4.9271 V 14.009958 H 48.933476 V 7.7189449 H 44.034539 V 23.377976 h 4.898937 v -7.146482 h 6.263223 v 7.146482 z"
     id="path8-3"
     inkscape:connector-curvature="0"
     style="fill:#ffb914;fill-opacity:1" /></g></svg>