<?xml version="1.0" encoding="UTF-8" standalone="no"?>
<!-- Created with Inkscape (http://www.inkscape.org/) -->

<svg
   xmlns:dc="http://purl.org/dc/elements/1.1/"
   xmlns:cc="http://creativecommons.org/ns#"
   xmlns:rdf="http://www.w3.org/1999/02/22-rdf-syntax-ns#"
   xmlns:svg="http://www.w3.org/2000/svg"
   xmlns="http://www.w3.org/2000/svg"
   xmlns:sodipodi="http://sodipodi.sourceforge.net/DTD/sodipodi-0.dtd"
   xmlns:inkscape="http://www.inkscape.org/namespaces/inkscape"
   version="1.1"
   id="svg2"
   xml:space="preserve"
   width="158"
   height="56.693333"
   viewBox="0 0 158 56.693333"
   sodipodi:docname="MTS_logo_color_ru_rgb.svg"
   inkscape:version="0.92.2 (5c3e80d, 2017-08-06)"
   inkscape:export-filename="/home/matvei/Logos/M&amp;A Animation/MTS_logo_color_ru_rgb.svg.png"
   inkscape:export-xdpi="1215.1797"
   inkscape:export-ydpi="1215.1797"><metadata
     id="metadata8"><rdf:RDF><cc:Work
         rdf:about=""><dc:format>image/svg+xml</dc:format><dc:type
           rdf:resource="http://purl.org/dc/dcmitype/StillImage" /><dc:title /></cc:Work></rdf:RDF></metadata><defs
     id="defs6" /><sodipodi:namedview
     pagecolor="#ffffff"
     bordercolor="#666666"
     borderopacity="1"
     objecttolerance="10"
     gridtolerance="10"
     guidetolerance="10"
     inkscape:pageopacity="0"
     inkscape:pageshadow="2"
     inkscape:window-width="1853"
     inkscape:window-height="1025"
     id="namedview4"
     showgrid="false"
     inkscape:zoom="7.763659"
     inkscape:cx="93.387162"
     inkscape:cy="17.779004"
     inkscape:window-x="67"
     inkscape:window-y="27"
     inkscape:window-maximized="1"
     inkscape:current-layer="g10"
     showguides="false" /><g
     id="g10"
     inkscape:groupmode="layer"
     inkscape:label="ink_ext_XXXXXX"
     transform="matrix(1.3333333,0,0,-1.3333333,0,56.693333)"><path
       inkscape:connector-curvature="0"
       id="path14"
       style="fill:#e41d25;fill-opacity:1;fill-rule:nonzero;stroke:none;stroke-width:0.1"
       d="m 118.093,15.9734 c 0,0 -2.538,-0.33 -5.438,-0.33 -3.564,0 -4.259,1.1398 -4.259,3.9492 v 3.3832 c 0,2.8902 0.614,3.9875 4.259,3.9875 2.613,0 5.149,-0.3676 5.149,-0.3676 l 0.367,5.2172 c 0,0 -3.23,0.4453 -6.012,0.4453 -7.407,0 -10.105,-2.4449 -10.105,-8.3883 v -5.1683 c 0,-6.5563 3.271,-8.3914 10.068,-8.3914 2.737,0 6.379,0.4453 6.379,0.4453 l -0.408,5.2179" /><path
       inkscape:connector-curvature="0"
       id="path16"
       style="fill:#e41d25;fill-opacity:1;fill-rule:nonzero;stroke:none;stroke-width:0.1"
       d="M 81.0281,26.5035 H 87.168 V 10.6273 h 6.3828 v 15.8762 h 6.1363 l 0.3639,5.3875 H 80.6605 l 0.3676,-5.3875" /><path
       inkscape:connector-curvature="0"
       id="path18"
       style="fill:#e41d25;fill-opacity:1;fill-rule:nonzero;stroke:none;stroke-width:0.1"
       d="m 68.023,12.7645 3.3981,8.1496 h 0.3742 l 0.6981,-10.2868 h 6.1738 l -1.4113,21.261 H 71.2965 L 66.1566,19.8141 H 65.7895 L 60.441,31.8883 h -5.8844 l -1.4011,-21.261 h 6.0054 l 0.6227,10.2868 h 0.3672 l 3.8137,-8.1496 h 4.0585" /><path
       inkscape:connector-curvature="0"
       id="path20"
       style="fill:#e41d25;fill-opacity:1;fill-rule:nonzero;stroke:none;stroke-width:0.1"
       d="M 42.5203,4.25156 C 42.5203,1.90625 40.6137,0 38.268,0 H 4.25234 C 1.90664,0 0,1.90625 0,4.25352 V 38.2703 c 0,2.3457 1.90664,4.2492 4.25234,4.2492 L 38.268,42.516 c 2.3457,0 4.2523,-1.9 4.2523,-4.2457 V 4.25156"
       sodipodi:nodetypes="cssssccsc" /><path
       inkscape:connector-curvature="0"
       id="path22"
       style="fill:#ffffff;fill-opacity:1;fill-rule:nonzero;stroke:none;stroke-width:0.1"
       d="m 32.7641,18.1352 c 0,8.8339 -6.1336,18.9019 -11.5067,18.9019 -5.3707,0 -11.50115,-10.068 -11.50115,-18.9019 0,-6.2735 3.54805,-12.60434 11.50115,-12.60434 7.9555,0 11.5067,6.33084 11.5067,12.60434" /></g></svg>